…
    ## # A tibble: 0 × 6
    ## # ℹ 6 variables: address <chr>, city <chr>, state <chr>, zip <chr>,
    ## #   longitude <dbl>, latitude <dbl>

there is no Denny’s locataion outside of the stats

### Exercise 6

``` r
dennys %>%
  mutate(country = "United States")
```

    ## # A tibble: 1,643 × 7
    ##    address                        city    state zip   longitude latitude country
    ##    <chr>                          <chr>   <chr> <chr>     <dbl>    <dbl> <chr>  
    ##  1 2900 Denali                    Anchor… AK    99503    -150.      61.2 United…
    ##  2 3850 Debarr Road               Anchor… AK    99508    -150.      61.2 United…
    ##  3 1929 Airport Way               Fairba… AK    99701    -148.      64.8 United…
    ##  4 230 Connector Dr               Auburn  AL    36849     -85.5     32.6 United…
    ##  5 224 Daniel Payne Drive N       Birmin… AL    35207     -86.8     33.6 United…
    ##  6 900 16th St S, Commons on Gree Birmin… AL    35294     -86.8     33.5 United…
    ##  7 5931 Alabama Highway, #157     Cullman AL    35056     -86.9     34.2 United…
    ##  8 2190 Ross Clark Circle         Dothan  AL    36301     -85.4     31.2 United…
    ##  9 900 Tyson Rd                   Hope H… AL    36043     -86.4     32.2 United…
    ## 10 4874 University Drive          Huntsv… AL    35816     -86.7     34.7 United…
    ## # ℹ 1,633 more rows
…
### Exercise 9

``` r
dennys %>%
  count(state) %>%
  arrange(desc(n))
```

    ## # A tibble: 51 × 2
    ##    state     n
    ##    <chr> <int>
    ##  1 CA      403
    ##  2 TX      200
    ##  3 FL      140
    ##  4 AZ       83
    ##  5 IL       56
    ##  6 NY       56
    ##  7 WA       49
    ##  8 OH       44
    ##  9 MO       42
    ## 10 PA       40
    ## # ℹ 41 more rows

California has the most Denny’s and Delaware has the least.

``` r
laquinta_country %>%
  filter (country == "United States") %>%
  count(state) %>%
  arrange(desc(n))
```

    ## # A tibble: 48 × 2
    ##    state     n
    ##    <chr> <int>
    ##  1 TX      237
    ##  2 FL       74
    ##  3 CA       56
    ##  4 GA       41
    ##  5 TN       30
    ##  6 OK       29
    ##  7 LA       28
    ##  8 CO       27
    ##  9 NM       19
    ## 10 NY       19
    ## # ℹ 38 more rows
Texas has the most La Quinta and Maine has the least. These results are
not suprsing, since the CA and Texas are larger states while Delaware
and Maine are small states

### Exercise 10

``` r
dennys %>%
  count(state) %>%
  inner_join(states, by = c("state" = "abbreviation")) %>%
  mutate(per1000 = n / (area / 1000)) %>% 
  arrange(desc(per1000))
```

    ## # A tibble: 51 × 5
    ##    state     n name                     area per1000
    ##    <chr> <int> <chr>                   <dbl>   <dbl>
    ##  1 DC        2 District of Columbia     68.3  29.3  
    ##  2 RI        5 Rhode Island           1545.    3.24 
    ##  3 CA      403 California           163695.    2.46 
    ##  4 CT       12 Connecticut            5543.    2.16 
    ##  5 FL      140 Florida               65758.    2.13 
    ##  6 MD       26 Maryland              12406.    2.10 
    ##  7 NJ       10 New Jersey             8723.    1.15 
    ##  8 NY       56 New York              54555.    1.03 
    ##  9 IN       37 Indiana               36420.    1.02 
    ## 10 OH       44 Ohio                  44826.    0.982
    ## # ℹ 41 more rows

DC has the most Denny’s per 1000 sq miles.

``` r
laquinta_country %>%
  count(state) %>%
  inner_join(states, by = c("state" = "abbreviation")) %>%
  mutate(per1000 = n / (area / 1000)) %>% 
  arrange(desc(per1000))
```

    ## # A tibble: 48 × 5
    ##    state     n name             area per1000
    ##    <chr> <int> <chr>           <dbl>   <dbl>
    ##  1 RI        2 Rhode Island    1545.   1.29 
    ##  2 FL       74 Florida        65758.   1.13 
    ##  3 CT        6 Connecticut     5543.   1.08 
    ##  4 MD       13 Maryland       12406.   1.05 
    ##  5 TX      237 Texas         268596.   0.882
    ##  6 TN       30 Tennessee      42144.   0.712
    ##  7 GA       41 Georgia        59425.   0.690
    ##  8 NJ        5 New Jersey      8723.   0.573
    ##  9 MA        6 Massachusetts  10554.   0.568
    ## 10 LA       28 Louisiana      52378.   0.535
    ## # ℹ 38 more rows
…
